{
    "version": "1.0.0",
    "summary": "helpful summary of your project, less than 80 characters",
    "repository": "https://github.com/user/project.git",
    "license": "BSD3",
    "source-directories": [
        "src"
    ],
    "exposed-modules": [],
    "dependencies": {
        "Fresheyeball/elm-animate-css": "1.0.1 <= v < 2.0.0",
        "elm-community/random-extra": "2.0.0 <= v < 3.0.0",
        "elm-lang/core": "5.0.0 <= v < 6.0.0",
        "elm-lang/html": "2.0.0 <= v < 3.0.0",
        "ohanhi/keyboard-extra": "3.0.4 <= v < 4.0.0",
        "rundis/elm-bootstrap": "3.0.0 <= v < 4.0.0"
    },
    "elm-version": "0.18.0 <= v < 0.19.0"
}
